<?xml version="1.0" encoding="utf-8"?>
<!-- Generator: Adobe Illustrator 25.2.0, SVG Export Plug-In . SVG Version: 6.00 Build 0)  -->
<svg version="1.1" xmlns="http://www.w3.org/2000/svg" xmlns:xlink="http://www.w3.org/1999/xlink" x="0px" y="0px"
	 viewBox="0 0 18 18" style="enable-background:new 0 0 18 18;" xml:space="preserve">
<style type="text/css">
	.st0{fill:#113759;}
	.st1{fill:#FFFFFF;}
</style>
<g id="_x39_">
</g>
<g id="_x31_2">
</g>
<g id="_x31_4">
</g>
<g id="_x31_8">
	<g>
		<path class="st1" d="M12.25,13.19c-0.13,0-0.24,0.11-0.24,0.24c0,0.13,0.11,0.24,0.24,0.24c0.13,0,0.24-0.11,0.24-0.24
			C12.48,13.3,12.38,13.19,12.25,13.19z"/>
		<path class="st1" d="M13.43,13.81c-0.04-0.03-0.09-0.05-0.14-0.05c-0.01,0-0.02,0-0.03,0c-0.06,0.01-0.12,0.04-0.16,0.09
			s-0.06,0.11-0.05,0.17c0.01,0.06,0.04,0.12,0.09,0.16c0.29,0.22,0.52,0.51,0.68,0.83c0.06,0.12,0.2,0.16,0.32,0.11
			c0.12-0.06,0.16-0.2,0.11-0.32C14.06,14.41,13.77,14.07,13.43,13.81z"/>
		<path class="st1" d="M12.96,12.24l-1.43-0.48L11,10.69l0.03-0.03c0.45-0.46,0.76-1.05,0.86-1.68l0.07-0.43h0.59
			c0.46,0,0.83-0.37,0.83-0.83V5.87c0-2.41-1.96-4.37-4.37-4.37S4.63,3.46,4.63,5.87v1.86c0,0.35,0.22,0.66,0.55,0.78l0.04,0.01
			v0.39c0,0.46,0.37,0.83,0.83,0.83h0.3l0.02,0.03c0.13,0.27,0.29,0.53,0.49,0.75c0.04,0.04,0.08,0.09,0.13,0.14L7,10.69l-0.53,1.07
			l-1.43,0.48c-1.61,0.54-2.78,2.23-2.78,4.03c0,0.13,0.11,0.24,0.24,0.24H15.5c0.13,0,0.24-0.11,0.24-0.24
			C15.73,14.47,14.56,12.77,12.96,12.24z M11.11,11.97l-0.01,0.02c-0.18,0.53-0.41,1.05-0.66,1.54l-0.04,0.07l-1.1-1.1l1.36-1.44
			L11.11,11.97z M8.96,12.17L8.2,11.41l0.19,0.04c0.35,0.07,0.72,0.08,1.08,0.02l0.17-0.03L8.96,12.17z M12.9,7.73
			c0,0.2-0.16,0.35-0.35,0.35h-0.52l0.01-0.07c0.07-0.58,0.12-1.2,0.14-1.8l0-0.11h0.72V7.73z M5.11,5.57
			c0.07-0.98,0.51-1.88,1.23-2.55C7.07,2.34,8.01,1.97,9,1.97c0.99,0,1.93,0.37,2.65,1.05c0.72,0.67,1.16,1.58,1.23,2.55l0,0.06
			h-0.7l0-0.06c-0.02-1.6-1.33-2.89-2.92-2.89H8.74c-1.59,0-2.9,1.3-2.92,2.89l0,0.06h-0.7L5.11,5.57z M5.46,8.08
			c-0.2,0-0.35-0.16-0.35-0.35V6.11h0.72l0,0.06c0,0.03,0,0.06,0,0.09l0,0c0.02,0.58,0.07,1.19,0.14,1.76l0.01,0.07H5.46z
			 M6.05,9.27c-0.2,0-0.35-0.16-0.35-0.35V8.56h0.35l0.07,0.43c0.01,0.07,0.03,0.14,0.04,0.21l0.02,0.07H6.05z M6.3,5.36
			c0.06-0.6,0.34-1.16,0.79-1.56c0.45-0.41,1.04-0.64,1.65-0.64h0.53c0.66,0,1.27,0.26,1.73,0.72c0.46,0.47,0.72,1.08,0.72,1.74
			c0,0.09,0,0.17,0,0.25l0,0.07l-0.07-0.01l-0.37-0.05c-1.02-0.15-1.98-0.62-2.7-1.35c-0.04-0.04-0.1-0.07-0.17-0.07
			c-0.77,0-1.52,0.36-2.01,0.95L6.28,5.55L6.3,5.36z M6.92,9.83L6.87,9.74h0.75l0.01,0.04c0.12,0.33,0.43,0.55,0.78,0.55H9
			c0.46,0,0.83-0.37,0.83-0.83c0-0.46-0.37-0.83-0.83-0.83H8.41c-0.35,0-0.66,0.22-0.78,0.55L7.62,9.27H6.67L6.66,9.22
			C6.5,8.71,6.34,7.23,6.3,6.34l0-0.02l0.41-0.55c0.38-0.5,0.95-0.81,1.58-0.85l0.03,0l0.02,0.02c0.78,0.75,1.81,1.24,2.88,1.4
			l0.49,0.07l0,0.05c-0.03,0.62-0.09,1.24-0.17,1.81C11.5,8.4,11.49,8.5,11.46,8.66c-0.01,0.07-0.02,0.15-0.04,0.25
			c-0.08,0.47-0.3,0.93-0.62,1.3c-0.33,0.38-0.75,0.65-1.21,0.76C9.4,11.02,9.2,11.04,9,11.04s-0.4-0.02-0.59-0.07
			C7.81,10.82,7.27,10.4,6.92,9.83z M8.06,9.5c0-0.2,0.16-0.35,0.35-0.35H9c0.2,0,0.35,0.16,0.35,0.35C9.35,9.7,9.2,9.86,9,9.86
			H8.41C8.21,9.86,8.06,9.7,8.06,9.5z M7.29,11.17l1.34,1.34L7.6,13.61l-0.04-0.07c-0.26-0.5-0.48-1.01-0.66-1.54l-0.01-0.02
			L7.29,11.17z M2.75,16.03l0.01-0.06c0.12-1.49,1.12-2.84,2.44-3.28l1.3-0.43l0.02,0.05c0.23,0.63,0.51,1.24,0.84,1.81l0,0
			c0.24,0.42,0.51,0.84,0.8,1.23l0,0l0.42,0.67H2.75z M9.05,15.74L9,15.82l-0.45-0.72c0-0.01-0.01-0.01-0.01-0.02
			c-0.24-0.32-0.46-0.65-0.67-1l-0.02-0.04l1.13-1.19l1.18,1.18l-0.02,0.04c-0.21,0.35-0.43,0.68-0.67,1
			c-0.01,0.01-0.01,0.01-0.09,0.14C9.31,15.31,9.22,15.47,9.05,15.74z M9.43,16.03l0.42-0.68c0.29-0.39,0.57-0.81,0.81-1.24l0-0.01
			c0.32-0.57,0.6-1.18,0.83-1.8l0.02-0.05l1.3,0.43c1.32,0.44,2.32,1.79,2.44,3.28l0.01,0.06H9.43z"/>
	</g>
</g>
<g id="_x32_4">
</g>
<g id="_x33_6">
</g>
<g id="_x39_2">
</g>
</svg>
