<?xml version="1.0" encoding="utf-8"?>
<!-- Generator: Adobe Illustrator 25.2.0, SVG Export Plug-In . SVG Version: 6.00 Build 0)  -->
<svg version="1.1" xmlns="http://www.w3.org/2000/svg" xmlns:xlink="http://www.w3.org/1999/xlink" x="0px" y="0px"
	 viewBox="0 0 24 24" style="enable-background:new 0 0 24 24;" xml:space="preserve">
<style type="text/css">
	.st0{fill:#113759;}
	.st1{fill:#FFFFFF;}
</style>
<g id="_x39_">
</g>
<g id="_x31_2">
</g>
<g id="_x31_4">
</g>
<g id="_x31_8">
</g>
<g id="_x32_4">
	<g>
		<path class="st1" d="M16.55,17.87c-0.18,0-0.33,0.15-0.33,0.33c0,0.18,0.15,0.33,0.33,0.33c0.18,0,0.33-0.15,0.33-0.33
			C16.88,18.02,16.73,17.87,16.55,17.87z"/>
		<path class="st1" d="M18.2,18.73c-0.06-0.05-0.13-0.07-0.2-0.07c-0.01,0-0.03,0-0.04,0c-0.09,0.01-0.17,0.06-0.22,0.13
			s-0.08,0.16-0.07,0.24c0.01,0.09,0.06,0.17,0.13,0.22c0.4,0.31,0.73,0.71,0.96,1.16c0.08,0.16,0.28,0.23,0.44,0.15
			c0.16-0.08,0.23-0.28,0.15-0.44C19.08,19.58,18.68,19.1,18.2,18.73z"/>
		<path class="st1" d="M17.54,16.53l-2-0.67l-0.75-1.49l0.04-0.04c0.63-0.64,1.06-1.48,1.2-2.35l0.1-0.6h0.82
			c0.64,0,1.16-0.52,1.16-1.16v-2.6c0-3.37-2.74-6.12-6.12-6.12S5.88,4.24,5.88,7.62v2.6c0,0.49,0.31,0.93,0.77,1.09l0.06,0.02v0.54
			c0,0.64,0.52,1.16,1.16,1.16h0.42l0.02,0.05c0.18,0.38,0.41,0.74,0.68,1.05c0.05,0.06,0.11,0.13,0.18,0.19l0.04,0.04l-0.75,1.49
			l-2,0.67c-2.25,0.75-3.89,3.12-3.89,5.64c0,0.18,0.15,0.33,0.33,0.33h18.19c0.18,0,0.33-0.15,0.33-0.33
			C21.43,19.65,19.79,17.28,17.54,16.53z M14.95,16.16l-0.01,0.03c-0.26,0.74-0.57,1.47-0.93,2.16l-0.05,0.1l-1.54-1.54l1.9-2.01
			L14.95,16.16z M11.95,16.44l-1.06-1.06l0.27,0.06c0.5,0.1,1,0.12,1.51,0.03l0.24-0.04L11.95,16.44z M17.46,10.22
			c0,0.27-0.22,0.5-0.5,0.5h-0.72l0.01-0.09c0.1-0.81,0.17-1.69,0.2-2.53l0-0.15h1V10.22z M6.56,7.2c0.1-1.37,0.71-2.64,1.72-3.57
			C9.29,2.68,10.61,2.16,12,2.16c1.38,0,2.7,0.52,3.72,1.46c1.01,0.94,1.62,2.21,1.73,3.57l0.01,0.09h-0.98l0-0.08
			c-0.03-2.23-1.87-4.05-4.09-4.05h-0.74c-2.23,0-4.06,1.82-4.09,4.05l0,0.08H6.55L6.56,7.2z M7.04,10.72c-0.27,0-0.5-0.22-0.5-0.5
			V7.95h1l0,0.08c0,0.04,0,0.09,0,0.13l0,0.01c0.03,0.82,0.1,1.67,0.2,2.46l0.01,0.09H7.04z M7.87,12.37c-0.27,0-0.5-0.22-0.5-0.5
			v-0.5h0.49l0.1,0.6c0.02,0.1,0.04,0.19,0.06,0.29l0.02,0.1H7.87z M8.22,6.9C8.3,6.06,8.69,5.29,9.32,4.71
			c0.63-0.58,1.45-0.9,2.31-0.9h0.74c0.92,0,1.78,0.36,2.43,1.01c0.65,0.65,1,1.52,1,2.43c0,0.13,0,0.24,0,0.35l0,0.1L15.71,7.7
			l-0.52-0.07c-1.42-0.2-2.77-0.87-3.78-1.89c-0.06-0.06-0.15-0.1-0.23-0.1c-1.08,0-2.13,0.5-2.81,1.33L8.19,7.18L8.22,6.9z
			 M9.09,13.16l-0.07-0.13h1.05l0.02,0.06c0.16,0.46,0.6,0.77,1.09,0.77H12c0.64,0,1.16-0.52,1.16-1.16c0-0.64-0.52-1.16-1.16-1.16
			h-0.83c-0.49,0-0.93,0.31-1.09,0.77l-0.02,0.06H8.74l-0.02-0.06C8.5,11.6,8.27,9.52,8.22,8.28l0-0.03l0.57-0.77
			c0.53-0.7,1.33-1.14,2.21-1.19l0.04,0l0.03,0.02c1.1,1.05,2.53,1.74,4.03,1.95l0.68,0.1l0,0.08c-0.04,0.86-0.13,1.74-0.24,2.53
			c-0.03,0.18-0.05,0.31-0.09,0.54c-0.02,0.1-0.03,0.21-0.06,0.35c-0.11,0.66-0.42,1.31-0.86,1.82c-0.47,0.54-1.05,0.91-1.69,1.07
			c-0.27,0.07-0.55,0.1-0.83,0.1s-0.56-0.03-0.83-0.1C10.33,14.55,9.57,13.97,9.09,13.16z M10.68,12.7c0-0.27,0.22-0.5,0.5-0.5H12
			c0.27,0,0.5,0.22,0.5,0.5c0,0.27-0.22,0.5-0.5,0.5h-0.83C10.9,13.2,10.68,12.98,10.68,12.7z M9.61,15.04l1.88,1.88l-1.45,1.53
			l-0.05-0.1c-0.36-0.69-0.68-1.42-0.93-2.16l-0.01-0.03L9.61,15.04z M3.25,21.84l0.01-0.09c0.17-2.09,1.57-3.98,3.42-4.59
			l1.82-0.61l0.03,0.08c0.32,0.88,0.71,1.73,1.17,2.54l0,0c0.34,0.59,0.72,1.17,1.13,1.72l0,0.01l0.59,0.94H3.25z M12.07,21.43
			L12,21.54l-0.63-1.01c-0.01-0.01-0.01-0.02-0.02-0.02c-0.33-0.45-0.65-0.92-0.94-1.4l-0.03-0.05l1.58-1.67l1.66,1.66l-0.03,0.06
			c-0.29,0.49-0.6,0.96-0.94,1.4c-0.01,0.01-0.01,0.02-0.13,0.2C12.44,20.84,12.3,21.06,12.07,21.43z M12.6,21.84l0.59-0.95
			c0.41-0.55,0.79-1.13,1.13-1.73l0.01-0.01c0.45-0.8,0.84-1.65,1.16-2.52l0.03-0.08l1.82,0.61c1.84,0.62,3.25,2.5,3.42,4.59
			l0.01,0.09H12.6z"/>
	</g>
</g>
<g id="_x33_6">
</g>
<g id="_x39_2">
</g>
</svg>
