<?xml version="1.0" encoding="utf-8"?>
<!-- Generator: Adobe Illustrator 25.2.0, SVG Export Plug-In . SVG Version: 6.00 Build 0)  -->
<svg version="1.1" xmlns="http://www.w3.org/2000/svg" xmlns:xlink="http://www.w3.org/1999/xlink" x="0px" y="0px"
	 viewBox="0 0 92 92" style="enable-background:new 0 0 92 92;" xml:space="preserve">
<style type="text/css">
	.st0{fill:#113759;}
	.st1{fill:#FFFFFF;}
</style>
<g id="_x39_">
</g>
<g id="_x31_2">
</g>
<g id="_x31_4">
</g>
<g id="_x31_8">
</g>
<g id="_x32_4">
</g>
<g id="_x33_6">
</g>
<g id="_x39_2">
	<g>
		<path class="st1" d="M64.84,70.32c-0.76,0-1.37,0.61-1.37,1.37c0,0.76,0.61,1.37,1.37,1.37c0.76,0,1.37-0.61,1.37-1.37
			C66.21,70.93,65.59,70.32,64.84,70.32z"/>
		<path class="st1" d="M71.69,73.87c-0.24-0.19-0.53-0.28-0.83-0.28c-0.06,0-0.12,0-0.18,0.01c-0.36,0.05-0.69,0.23-0.91,0.52
			s-0.32,0.65-0.27,1.01c0.05,0.36,0.23,0.69,0.52,0.91c1.66,1.28,3.03,2.94,3.97,4.82c0.34,0.68,1.16,0.95,1.84,0.61
			c0.68-0.34,0.95-1.16,0.61-1.84C75.32,77.39,73.68,75.4,71.69,73.87z"/>
		<path class="st1" d="M68.95,64.76l-8.27-2.76l-3.09-6.19l0.17-0.17c2.61-2.66,4.38-6.11,4.98-9.74l0.41-2.47h3.41
			c2.64,0,4.8-2.15,4.8-4.8V27.85C71.35,13.87,59.98,2.5,46,2.5S20.65,13.87,20.65,27.85v10.79c0,2.03,1.29,3.84,3.2,4.52l0.23,0.08
			v2.25c0,2.64,2.15,4.79,4.79,4.79h1.72l0.09,0.2c0.73,1.59,1.68,3.06,2.82,4.37c0.23,0.26,0.47,0.52,0.74,0.8l0.17,0.17
			l-3.09,6.19l-8.27,2.76c-9.33,3.11-16.1,12.94-16.1,23.37c0,0.76,0.61,1.37,1.37,1.37h75.35c0.76,0,1.37-0.61,1.37-1.37
			C85.05,77.7,78.28,67.87,68.95,64.76z M58.22,63.22l-0.05,0.14c-1.06,3.06-2.36,6.07-3.86,8.94l-0.22,0.41l-6.38-6.38L55.6,58
			L58.22,63.22z M45.78,64.39l-4.41-4.41l1.13,0.24c2.05,0.43,4.16,0.48,6.24,0.14l1-0.16L45.78,64.39z M68.61,38.64
			c0,1.13-0.92,2.05-2.05,2.05h-3l0.05-0.39c0.43-3.36,0.72-6.98,0.84-10.46l0.02-0.63h4.15V38.64z M23.46,26.11
			c0.43-5.66,2.96-10.92,7.12-14.8C34.78,7.39,40.25,5.24,46,5.24c5.73,0,11.19,2.15,15.39,6.06c4.18,3.89,6.72,9.15,7.15,14.8
			l0.03,0.37H64.5l0-0.34c-0.12-9.26-7.73-16.79-16.96-16.79h-3.07c-9.23,0-16.84,7.53-16.96,16.79l0,0.34h-4.07L23.46,26.11z
			 M25.45,40.69c-1.13,0-2.05-0.92-2.05-2.05v-9.42h4.15l0.01,0.33c0.01,0.18,0.01,0.36,0.02,0.54l0,0.02
			c0.12,3.38,0.4,6.91,0.83,10.2l0.05,0.39H25.45z M28.87,47.54c-1.13,0-2.05-0.92-2.05-2.05v-2.05h2.04l0.41,2.47
			c0.07,0.39,0.15,0.8,0.25,1.22l0.1,0.42H28.87z M30.32,24.88c0.36-3.48,1.99-6.7,4.58-9.08c2.62-2.4,6.02-3.72,9.56-3.72h3.07
			c3.8,0,7.37,1.49,10.06,4.2c2.69,2.7,4.16,6.28,4.16,10.09c0,0.54,0,1.01-0.01,1.44l-0.01,0.4l-0.39-0.05l-2.14-0.31
			c-5.89-0.84-11.46-3.62-15.67-7.83c-0.26-0.26-0.6-0.4-0.97-0.4c-4.46,0-8.81,2.06-11.65,5.51l-0.72,0.88L30.32,24.88z
			 M33.95,50.8l-0.31-0.52h4.34l0.08,0.23c0.68,1.91,2.5,3.2,4.52,3.2H46c2.64,0,4.79-2.15,4.79-4.8c0-2.64-2.15-4.79-4.79-4.79
			h-3.42c-2.03,0-3.85,1.28-4.52,3.2l-0.08,0.23h-5.49l-0.07-0.24c-0.89-2.97-1.86-11.57-2.07-16.71l-0.01-0.12l2.38-3.17
			c2.19-2.91,5.53-4.7,9.17-4.91l0.15-0.01l0.11,0.1c4.55,4.33,10.48,7.21,16.69,8.09l2.83,0.4l-0.01,0.31
			c-0.17,3.58-0.52,7.21-1.01,10.5c-0.11,0.75-0.2,1.3-0.36,2.22c-0.07,0.4-0.14,0.86-0.24,1.44c-0.46,2.74-1.73,5.42-3.57,7.56
			c-1.93,2.23-4.35,3.76-7.01,4.42c-1.13,0.28-2.29,0.42-3.45,0.42s-2.32-0.14-3.45-0.42C39.08,56.56,35.94,54.14,33.95,50.8z
			 M40.52,48.91c0-1.13,0.92-2.05,2.06-2.05H46c1.13,0,2.05,0.92,2.05,2.05c0,1.13-0.92,2.06-2.05,2.06h-3.42
			C41.44,50.97,40.52,50.04,40.52,48.91z M36.1,58.59l7.8,7.8l-5.99,6.34l-0.22-0.43c-1.5-2.87-2.8-5.88-3.85-8.94l-0.05-0.14
			L36.1,58.59z M9.73,86.76l0.03-0.37c0.69-8.65,6.51-16.48,14.16-19.03l7.53-2.51l0.11,0.31c1.31,3.63,2.94,7.17,4.85,10.52
			l0.01,0.02c1.39,2.45,2.96,4.85,4.66,7.12l0.02,0.02l2.43,3.91H9.73z M46.29,85.07L46,85.54l-2.61-4.2
			c-0.02-0.03-0.04-0.07-0.07-0.1c-1.39-1.85-2.69-3.8-3.88-5.79l-0.13-0.22l6.53-6.9l6.87,6.87l-0.14,0.23
			c-1.2,2.01-2.51,3.97-3.89,5.82c-0.04,0.05-0.05,0.07-0.52,0.82C47.82,82.61,47.26,83.52,46.29,85.07z M48.47,86.76l2.45-3.93
			c1.71-2.28,3.29-4.7,4.7-7.18l0.03-0.05c1.88-3.32,3.5-6.83,4.8-10.43l0.11-0.31l7.53,2.51c7.64,2.55,13.46,10.37,14.16,19.03
			l0.03,0.37H48.47z"/>
	</g>
</g>
</svg>
