<?xml version="1.0" encoding="utf-8"?>
<!-- Generator: Adobe Illustrator 25.2.0, SVG Export Plug-In . SVG Version: 6.00 Build 0)  -->
<svg version="1.1" xmlns="http://www.w3.org/2000/svg" xmlns:xlink="http://www.w3.org/1999/xlink" x="0px" y="0px"
	 viewBox="0 0 92 92" style="enable-background:new 0 0 92 92;" xml:space="preserve">
<style type="text/css">
	.st0{fill:#113759;}
	.st1{fill:#FFFFFF;}
</style>
<g id="_x39_">
</g>
<g id="_x31_2">
</g>
<g id="_x31_4">
</g>
<g id="_x31_8">
</g>
<g id="_x32_4">
</g>
<g id="_x33_6">
</g>
<g id="_x39_2">
	<path class="st1" d="M88.54,25.27c-0.85-1.07-2.11-1.68-3.46-1.68c-2.96,0-20.46-0.07-37.38-0.15l-0.43,0
		c-8.77-0.04-17.43-0.07-23.99-0.1l-0.62,0l-3.24-12.02c-0.64-2.38-2.81-4.04-5.28-4.04H4.29c-0.99,0-1.79,0.8-1.79,1.79
		c0,0.99,0.8,1.79,1.79,1.79h9.86c0.85,0,1.6,0.57,1.82,1.39l12.09,44.84l-1.01,0.04c-1.87,0.07-3.63,0.84-4.94,2.17
		c-1.39,1.41-2.14,3.28-2.1,5.25c0.07,3.96,3.34,7.18,7.3,7.18h5.07l-0.55,1.15c-0.53,1.12-0.8,2.31-0.8,3.55
		c0,4.57,3.72,8.28,8.28,8.28c4.57,0,8.28-3.72,8.28-8.28c0-1.24-0.27-2.43-0.8-3.55l-0.55-1.15H65.2l-0.55,1.15
		c-0.53,1.11-0.8,2.31-0.8,3.55c0,4.57,3.72,8.28,8.28,8.28s8.28-3.72,8.28-8.28c0-1.29-0.29-2.52-0.86-3.67l-0.41-0.83l0.88-0.3
		c0.73-0.25,1.22-0.93,1.22-1.7c0-0.99-0.8-1.79-1.79-1.79H27.29l-0.02,0c-2.39-0.12-3.64-1.96-3.64-3.71
		c0-1.77,1.25-3.62,3.63-3.74l0.04,0c7.01,0.02,21.32,0.02,34.19,0.02c6.45,0,12.27,0,16.07,0c2.66,0,4.93-1.81,5.53-4.4l6.3-27.3
		C89.69,27.7,89.38,26.33,88.54,25.27z M85.91,28.18L83.1,40.35H72.54l1.75-13.23l10.82,0.04c0.26,0.02,0.47,0.13,0.62,0.31
		l0.01,0.02C85.89,27.7,85.95,27.94,85.91,28.18z M82.27,43.93l-2.68,11.59c-0.22,0.96-1.06,1.62-2.04,1.62h-7.23l1.74-13.21H82.27z
		 M57.51,40.35V27.05l13.16,0.05l-1.75,13.24H57.51z M68.45,43.93l-1.74,13.21h-9.2V43.93H68.45z M39.36,43.93l1.76,13.21h-7.65
		c-1,0-1.87-0.67-2.14-1.63l-3.12-11.58H39.36z M53.93,27.04v13.31H42.5l-1.78-13.36L53.93,27.04z M23.63,26.92l13.47,0.05
		l1.78,13.37H27.25L23.63,26.92z M53.93,43.93v13.21h-9.2l-1.76-13.21H53.93z M72.14,81.14c-2.59,0-4.7-2.11-4.7-4.7
		c0-2.55,2.08-4.66,4.62-4.7l0.14,0c2.56,0.04,4.65,2.15,4.65,4.7C76.84,79.03,74.73,81.14,72.14,81.14z M39.31,81.14
		c-2.59,0-4.7-2.11-4.7-4.7c0-2.59,2.11-4.7,4.7-4.7c2.6,0,4.71,2.11,4.71,4.7C44.01,79.03,41.9,81.14,39.31,81.14z"/>
</g>
</svg>
