<?xml version="1.0" encoding="utf-8"?>
<!-- Generator: Adobe Illustrator 25.2.0, SVG Export Plug-In . SVG Version: 6.00 Build 0)  -->
<svg version="1.1" xmlns="http://www.w3.org/2000/svg" xmlns:xlink="http://www.w3.org/1999/xlink" x="0px" y="0px"
	 viewBox="0 0 9 9" style="enable-background:new 0 0 9 9;" xml:space="preserve">
<style type="text/css">
	.st0{fill:#113759;}
	.st1{fill:#FFFFFF;}
</style>
<g id="_x39_">
	<path class="st1" d="M8.41,2.59C8.33,2.5,8.22,2.44,8.09,2.44c-0.27,0-1.88-0.01-3.44-0.01l-0.04,0c-0.81,0-1.6-0.01-2.21-0.01
		l-0.06,0l-0.3-1.11C2,1.09,1.8,0.94,1.57,0.94H0.66C0.57,0.94,0.5,1.01,0.5,1.1c0,0.09,0.07,0.16,0.16,0.16h0.91
		c0.08,0,0.15,0.05,0.17,0.13l1.11,4.12l-0.09,0C2.58,5.53,2.42,5.6,2.3,5.72c-0.13,0.13-0.2,0.3-0.19,0.48
		c0.01,0.36,0.31,0.66,0.67,0.66h0.47L3.2,6.97C3.15,7.07,3.12,7.18,3.12,7.3c0,0.42,0.34,0.76,0.76,0.76
		c0.42,0,0.76-0.34,0.76-0.76c0-0.11-0.02-0.22-0.07-0.33L4.52,6.87h1.74L6.22,6.97C6.17,7.07,6.14,7.18,6.14,7.3
		c0,0.42,0.34,0.76,0.76,0.76c0.42,0,0.76-0.34,0.76-0.76c0-0.12-0.03-0.23-0.08-0.34L7.55,6.88l0.08-0.03
		C7.7,6.83,7.74,6.77,7.74,6.7c0-0.09-0.07-0.16-0.16-0.16h-4.8l0,0C2.56,6.53,2.44,6.36,2.44,6.2c0-0.16,0.12-0.33,0.33-0.34l0,0
		c0.64,0,1.96,0,3.14,0c0.59,0,1.13,0,1.48,0c0.24,0,0.45-0.17,0.51-0.4l0.58-2.51C8.52,2.82,8.49,2.69,8.41,2.59z M8.17,2.86
		L7.91,3.98H6.94L7.1,2.76l0.99,0c0.02,0,0.04,0.01,0.06,0.03l0,0C8.17,2.82,8.17,2.84,8.17,2.86z M7.84,4.31L7.59,5.38
		C7.57,5.46,7.49,5.52,7.4,5.52H6.74L6.9,4.31H7.84z M5.56,3.98V2.76l1.21,0L6.61,3.98H5.56z M6.56,4.31L6.4,5.52H5.56V4.31H6.56z
		 M3.89,4.31l0.16,1.22h-0.7c-0.09,0-0.17-0.06-0.2-0.15L2.86,4.31H3.89z M5.23,2.76v1.22H4.18L4.01,2.75L5.23,2.76z M2.44,2.75
		l1.24,0.01l0.16,1.23H2.78L2.44,2.75z M5.23,4.31v1.22H4.38L4.22,4.31H5.23z M6.9,7.73c-0.24,0-0.43-0.19-0.43-0.43
		c0-0.23,0.19-0.43,0.42-0.43l0.01,0c0.24,0,0.43,0.2,0.43,0.43C7.34,7.54,7.14,7.73,6.9,7.73z M3.88,7.73
		c-0.24,0-0.43-0.19-0.43-0.43c0-0.24,0.19-0.43,0.43-0.43c0.24,0,0.43,0.19,0.43,0.43C4.32,7.54,4.12,7.73,3.88,7.73z"/>
</g>
<g id="_x31_2">
</g>
<g id="_x31_4">
</g>
<g id="_x31_8">
</g>
<g id="_x32_4">
</g>
<g id="_x33_6">
</g>
<g id="_x39_2">
</g>
</svg>
