<?xml version="1.0" encoding="utf-8"?>
<!-- Generator: Adobe Illustrator 25.2.0, SVG Export Plug-In . SVG Version: 6.00 Build 0)  -->
<svg version="1.1" xmlns="http://www.w3.org/2000/svg" xmlns:xlink="http://www.w3.org/1999/xlink" x="0px" y="0px"
	 viewBox="0 0 18 18" style="enable-background:new 0 0 18 18;" xml:space="preserve">
<style type="text/css">
	.st0{fill:#113759;}
	.st1{fill:#FFFFFF;}
</style>
<g id="_x39_">
</g>
<g id="_x31_2">
</g>
<g id="_x31_4">
</g>
<g id="_x31_8">
	<path class="st1" d="M16.82,5.19c-0.16-0.2-0.39-0.31-0.64-0.31c-0.54,0-3.76-0.01-6.87-0.03l-0.08,0
		C7.62,4.84,6.03,4.84,4.82,4.83l-0.11,0l-0.6-2.21C3.99,2.18,3.6,1.88,3.14,1.88H1.33C1.15,1.88,1,2.03,1,2.21
		c0,0.18,0.15,0.33,0.33,0.33h1.81c0.16,0,0.29,0.11,0.34,0.26l2.22,8.25l-0.19,0.01c-0.34,0.01-0.67,0.15-0.91,0.4
		c-0.26,0.26-0.39,0.6-0.39,0.97c0.01,0.73,0.62,1.32,1.34,1.32h0.93l-0.1,0.21c-0.1,0.21-0.15,0.42-0.15,0.65
		c0,0.84,0.68,1.52,1.52,1.52c0.84,0,1.52-0.68,1.52-1.52c0-0.23-0.05-0.45-0.15-0.65l-0.1-0.21h3.49l-0.1,0.21
		c-0.1,0.21-0.15,0.42-0.15,0.65c0,0.84,0.68,1.52,1.52,1.52c0.84,0,1.52-0.68,1.52-1.52c0-0.24-0.05-0.46-0.16-0.68l-0.08-0.15
		l0.16-0.05c0.13-0.05,0.22-0.17,0.22-0.31c0-0.18-0.15-0.33-0.33-0.33H5.56l0,0c-0.44-0.02-0.67-0.36-0.67-0.68
		c0-0.32,0.23-0.67,0.67-0.69l0.01,0c1.29,0,3.92,0,6.29,0c1.19,0,2.26,0,2.95,0c0.49,0,0.91-0.33,1.02-0.81l1.16-5.02
		C17.03,5.63,16.98,5.38,16.82,5.19z M16.34,5.72l-0.52,2.24h-1.94l0.32-2.43l1.99,0.01c0.05,0,0.09,0.02,0.11,0.06l0,0
		C16.34,5.63,16.35,5.68,16.34,5.72z M15.67,8.62l-0.49,2.13c-0.04,0.18-0.19,0.3-0.38,0.3h-1.33l0.32-2.43H15.67z M11.12,7.96V5.52
		l2.42,0.01l-0.32,2.43H11.12z M13.13,8.62l-0.32,2.43h-1.69V8.62H13.13z M7.78,8.62l0.32,2.43H6.7c-0.18,0-0.34-0.12-0.39-0.3
		L5.73,8.62H7.78z M10.46,5.51v2.45h-2.1L8.03,5.5L10.46,5.51z M4.89,5.49L7.36,5.5l0.33,2.46H5.55L4.89,5.49z M10.46,8.62v2.43
		H8.77L8.44,8.62H10.46z M13.81,15.46c-0.48,0-0.87-0.39-0.87-0.87c0-0.47,0.38-0.86,0.85-0.86l0.03,0c0.47,0.01,0.85,0.4,0.85,0.86
		C14.67,15.07,14.28,15.46,13.81,15.46z M7.77,15.46c-0.48,0-0.87-0.39-0.87-0.87c0-0.48,0.39-0.86,0.86-0.87
		c0.48,0,0.87,0.39,0.87,0.87C8.63,15.07,8.25,15.46,7.77,15.46z"/>
</g>
<g id="_x32_4">
</g>
<g id="_x33_6">
</g>
<g id="_x39_2">
</g>
</svg>
