<?xml version="1.0" encoding="utf-8"?>
<!-- Generator: Adobe Illustrator 25.2.0, SVG Export Plug-In . SVG Version: 6.00 Build 0)  -->
<svg version="1.1" xmlns="http://www.w3.org/2000/svg" xmlns:xlink="http://www.w3.org/1999/xlink" x="0px" y="0px"
	 viewBox="0 0 12 12" style="enable-background:new 0 0 12 12;" xml:space="preserve">
<style type="text/css">
	.st0{fill:#113759;}
	.st1{fill:#FFFFFF;}
</style>
<g id="_x39_">
</g>
<g id="_x31_2">
	<path class="st1" d="M11.04,3.55c-0.1-0.13-0.25-0.2-0.41-0.2c-0.35,0-2.42-0.01-4.43-0.02l-0.05,0c-1.04,0-2.06-0.01-2.84-0.01
		l-0.07,0L2.85,1.89C2.78,1.61,2.52,1.42,2.23,1.42H1.06c-0.12,0-0.21,0.1-0.21,0.21c0,0.12,0.1,0.21,0.21,0.21h1.17
		c0.1,0,0.19,0.07,0.22,0.16l1.43,5.31l-0.12,0c-0.22,0.01-0.43,0.1-0.58,0.26C3.01,7.74,2.92,7.96,2.92,8.2
		c0.01,0.47,0.4,0.85,0.86,0.85h0.6L4.32,9.18C4.26,9.32,4.23,9.46,4.23,9.6c0,0.54,0.44,0.98,0.98,0.98c0.54,0,0.98-0.44,0.98-0.98
		c0-0.15-0.03-0.29-0.09-0.42L6.03,9.05h2.24L8.21,9.18C8.15,9.32,8.11,9.46,8.11,9.6c0,0.54,0.44,0.98,0.98,0.98
		s0.98-0.44,0.98-0.98c0-0.15-0.03-0.3-0.1-0.43l-0.05-0.1l0.1-0.03c0.09-0.03,0.14-0.11,0.14-0.2c0-0.12-0.1-0.21-0.21-0.21H3.78
		l0,0C3.5,8.61,3.35,8.39,3.35,8.18c0-0.21,0.15-0.43,0.43-0.44l0,0c0.83,0,2.52,0,4.05,0c0.76,0,1.45,0,1.9,0
		c0.31,0,0.58-0.21,0.65-0.52l0.75-3.23C11.17,3.83,11.14,3.67,11.04,3.55z M10.72,3.89l-0.33,1.44H9.14l0.21-1.57l1.28,0.01
		c0.03,0,0.06,0.01,0.07,0.04l0,0C10.72,3.83,10.73,3.86,10.72,3.89z M10.29,5.75L9.98,7.13C9.95,7.24,9.85,7.32,9.74,7.32H8.88
		l0.21-1.56H10.29z M7.36,5.33V3.76l1.56,0.01L8.71,5.33H7.36z M8.66,5.75L8.45,7.32H7.36V5.75H8.66z M5.21,5.75l0.21,1.56H4.52
		c-0.12,0-0.22-0.08-0.25-0.19L3.89,5.75H5.21z M6.94,3.76v1.58H5.59L5.37,3.75L6.94,3.76z M3.35,3.74l1.6,0.01l0.21,1.58H3.78
		L3.35,3.74z M6.94,5.75v1.56H5.85L5.64,5.75H6.94z M9.09,10.16c-0.31,0-0.56-0.25-0.56-0.56c0-0.3,0.25-0.55,0.55-0.56l0.02,0
		c0.3,0,0.55,0.25,0.55,0.56C9.65,9.91,9.4,10.16,9.09,10.16z M5.21,10.16c-0.31,0-0.56-0.25-0.56-0.56c0-0.31,0.25-0.56,0.56-0.56
		c0.31,0,0.56,0.25,0.56,0.56C5.76,9.91,5.51,10.16,5.21,10.16z"/>
</g>
<g id="_x31_4">
</g>
<g id="_x31_8">
</g>
<g id="_x32_4">
</g>
<g id="_x33_6">
</g>
<g id="_x39_2">
</g>
</svg>
