<?xml version="1.0" encoding="utf-8"?>
<!-- Generator: Adobe Illustrator 23.0.1, SVG Export Plug-In . SVG Version: 6.00 Build 0)  -->
<svg version="1.1" id="Camada_1" xmlns="http://www.w3.org/2000/svg" xmlns:xlink="http://www.w3.org/1999/xlink" x="0px" y="0px"
	 viewBox="0 0 1829.1 352.3" style="enable-background:new 0 0 1829.1 352.3;" xml:space="preserve">
<style type="text/css">
	.st0{fill:#113759;}
	.st1{fill:#34AEE4;}
</style>
<g>
	<g>
		<path class="st0" d="M14.7,220.2V95.7c0-3,2.4-5.4,5.4-5.4h30.3c3,0,5.5,2.5,5.4,5.5L54.5,210c-0.2,16.4,26.8,15.7,26.7,3.9V95.7
			c0-3,2.4-5.4,5.4-5.4H117c3,0,5.4,2.4,5.4,5.4v113.4c0,0-1.2,23.9,27.4,14.8l0,0c0.2,7.9-1.3,25.8-20,27.7c-24,2.5-28-4.9-28-4.9
			s-15.7,12.7-50.8,5.4c-26.7-5.5-33.8-21.1-35.7-28.2C14.8,221.6,14.7,220.2,14.7,220.2z"/>
	</g>
	<g>
		<path class="st0" d="M149.8,223.9c-0.1-2.3-0.3-128.2-0.3-128.2c0-3,2.4-5.4,5.4-5.4h30.4c3,0,5.4,2.4,5.4,5.4V204
			c0,11-8.9,19.9-19.9,19.9H149.8z"/>
	</g>
</g>
<path class="st1" d="M276,89.2c0,5.4-1.8,9.8-5.4,13.3c-3.6,3.5-8.1,5.3-13.5,5.3c-5.5,0-10.1-1.8-13.6-5.3c-3.5-3.5-5.3-8-5.3-13.3
	s1.8-9.9,5.3-13.5c3.5-3.6,8.1-5.4,13.6-5.4c5.4,0,9.9,1.8,13.5,5.4C274.2,79.3,276,83.8,276,89.2z"/>
<path class="st0" d="M275.7,254.9c-1.2,0.7-5.4,1-12.4,1c-8.1,0-14-1.7-17.5-5.2c-3.5-3.5-5.3-8.9-5.3-16.3V130.7
	c0.5-0.2,2.1-0.4,4.7-0.6c2.6-0.3,5-0.4,7.3-0.4c15.6,0,23.3,6.8,23.3,20.5V254.9z"/>
<path class="st0" d="M321.6,234.6c-1.9-5.7-2.9-13.1-2.9-22.3V92l3.9-0.5c3.1-0.3,5.8-0.5,8-0.5c15.6,0,23.3,6.9,23.3,20.7v18.1
	h36.3v26.4H354v55.5c0,12.1,4.9,18.2,14.8,18.2c3.5,0,7-0.9,10.6-2.6c3.6-1.7,6.7-3.9,9.3-6.5c3.1,4.5,5.2,8,6.4,10.6
	c1.1,2.6,1.7,4.9,1.7,7c0,3.3-1.8,6.4-5.4,9.3c-3.6,2.9-8.3,5.2-13.9,6.9c-5.6,1.6-11.7,2.5-18.3,2.5
	C339.7,257.2,327.2,249.7,321.6,234.6z"/>
<path class="st0" d="M418.1,253.3c0,0-4.3-11.4,0-23.6c6.2-7.9,56.3-72.3,56.3-72.3h-57c-0.2-1.2-0.3-2.9-0.3-5.2
	c0-14.9,8.1-22.3,24.4-22.3h59.9c5.7,0,9.8,1,12.3,2.9c2.5,1.9,3.8,5.1,3.8,9.6v8.8l-57.8,74.9H500c7.9,0,13.7,1.5,17.2,4.4
	c3.5,2.9,5.3,7.9,5.3,14.8c0,2.2-0.2,4.9-0.5,8H418.1z"/>
<path class="st0" d="M589.2,254.9c-1.6,0.7-5.9,1-13,1c-14.9,0-22.3-7.2-22.3-21.5V70.5c0.5-0.2,2.1-0.4,4.7-0.6
	c2.6-0.3,5-0.4,7.3-0.4c15.6,0,23.3,6.8,23.3,20.5V254.9z"/>
<path class="st0" d="M694.4,231.3c5.7,0,10.6-0.8,14.6-2.3c4.1-1.6,7.5-3.4,10.2-5.6c2.8-2.2,5.2-4.2,7.3-6.1
	c2.6,3.3,4.9,6.9,6.9,10.8c2,3.9,3,7,3,9.2c0,3.8-2.2,7.3-6.5,10.4c-4.1,3.1-9.7,5.6-16.6,7.4c-6.9,1.8-14.3,2.7-22.3,2.7
	c-21.1,0-37.3-5.8-48.6-17.4c-11.3-11.6-17-28.4-17-50.6c0-13.1,2.5-24.4,7.7-33.7c5.1-9.3,12.2-16.5,21.3-21.5
	c9.1-5,19.2-7.5,30.5-7.5c16.9,0,30,4.9,39.3,14.7c9.2,9.8,13.9,23.2,13.9,40.3c0,8.3-0.3,13.7-0.8,16.1H661
	c0.7,10.7,3.9,18.9,9.6,24.6C676.3,228.4,684.2,231.3,694.4,231.3z M706.1,178.6c0-18.7-7.3-28-22-28c-7.3,0-13,2.5-17.1,7.5
	c-4.1,5-6.2,11.8-6.2,20.5H706.1z"/>
<path class="st0" d="M808.5,142.9c3.3-4.7,7.5-8.5,12.6-11.4c5.1-2.9,10.4-4.4,15.9-4.4c6,0,10.8,1.1,14.4,3.2
	c3.5,2.2,5.3,5.2,5.3,9.2c0,2.1-0.4,4.6-1.2,7.6c-0.8,3-1.8,6.1-3.1,9.3c-1.3,3.2-2.7,6.1-4.3,8.7c-3.3-2.8-6.4-4.7-9.3-5.8
	c-2.9-1.1-6.2-1.7-9.9-1.7c-5.2,0-9.6,1.6-13.4,4.7c-3.7,3.1-5.6,6.8-5.6,11.2v79.8h-35.3V130.7l3.1-0.5c2.8-0.3,5.6-0.5,8.6-0.5
	c5.9,0,10.8,1.1,14.6,3.4C805,135.3,807.5,138.5,808.5,142.9z"/>
<g>
	<path class="st0" d="M1016.9,203.4v2.3c0,12.1,2.9,20.6,8.6,25.6c5.7,5,14,7.5,24.9,7.5c6.4,0,12-0.8,16.8-2.5
		c4.7-1.7,9.4-3.8,14-6.4c2.6-1.5,4.2-2.3,4.8-2.3s1,0.1,1.3,0.5c0.2,0.3,0.3,1.1,0.3,2.3c0,2.9-0.4,6.4-1.2,10.3
		c-0.6,3.4-3.2,6.1-7.8,8.3c-4.6,2.1-9.7,3.8-15.4,4.8c-5.7,1.1-10.5,1.6-14.5,1.6c-34.6,0-51.9-15.9-51.9-47.6
		c0-22.2,5.2-40.3,15.6-54.3c10.4-14,26.3-21,47.5-21c9,0,16.4,1.6,22.2,4.9c5.7,3.3,9.9,7.3,12.5,11.9c2.6,4.7,3.9,9.2,3.9,13.7
		c0,14.7-5.9,25.4-17.7,32c-11.8,6.7-26.6,10-44.3,10C1029.1,205,1022.6,204.5,1016.9,203.4z M1018,188.5h16.3
		c9.6,0,19.4-1.5,29.4-4.4c10-2.9,14.9-9.3,14.9-19.3c0-4.4-1.9-8.2-5.6-11.3c-3.8-3.1-8.8-4.6-15-4.6
		C1035,149,1021.7,162.2,1018,188.5z"/>
	<path class="st0" d="M1237.2,239.3c0,2.3-0.3,5.1-0.9,8.5c-0.5,2.6-2.2,4.5-5.2,5.7c-3,1.2-5.9,1.8-8.6,1.8
		c-13.8,0-20.7-7.5-20.7-22.5l0.5-7.8l0.5-5.3c0.6-7.4,1.6-16.6,3-27.8c1.7-15.2,2.5-23.5,2.5-25c0-11.8-5.8-17.7-17.5-17.7
		c-6.3,0-12.8,2.8-19.6,8.5c-6.8,5.7-12.4,15.2-16.9,28.5l-6.7,63.2c-0.5,3.4-3.7,5.1-9.6,5.1h-0.9c-2.9,0-5.1-0.5-6.7-1.4
		c-1.5-0.9-2.2-2.1-2.1-3.5l8-76.3c1.4-14.4,2.1-22.5,2.1-24.4c0-2.8,0-4.6-0.1-5.6c-0.1-1-0.1-1.7-0.1-2.2c0-2.1,1.5-3.6,4.6-4.3
		c3.1-0.7,5.8-1,8.3-1c4,0,6,5.1,6,15.4v4.4c11.3-15.5,24.9-23.2,40.7-23.2c10.6,0,18.3,2.7,23.1,8c4.8,5.4,7.2,12.6,7.2,21.8
		c-0.2,2.5-0.5,6.5-1.2,12.1c-0.6,5.6-1.2,11.8-1.8,18.7c-2.5,21.7-3.7,33.8-3.7,36.3c0,4.1,0.7,6.7,2.2,7.8
		c1.5,1.1,3.5,1.6,6.1,1.6c1.1,0,2.2-0.2,3.4-0.6c1.2-0.4,2.1-0.6,2.8-0.6C1236.7,237.7,1237.2,238.2,1237.2,239.3z"/>
	<path class="st0" d="M1287.9,203.4v2.3c0,12.1,2.9,20.6,8.6,25.6c5.7,5,14,7.5,24.9,7.5c6.4,0,12-0.8,16.8-2.5
		c4.7-1.7,9.4-3.8,14-6.4c2.6-1.5,4.2-2.3,4.8-2.3s1,0.1,1.3,0.5c0.2,0.3,0.3,1.1,0.3,2.3c0,2.9-0.4,6.4-1.2,10.3
		c-0.6,3.4-3.2,6.1-7.8,8.3c-4.6,2.1-9.7,3.8-15.4,4.8c-5.7,1.1-10.5,1.6-14.5,1.6c-34.6,0-51.9-15.9-51.9-47.6
		c0-22.2,5.2-40.3,15.6-54.3c10.4-14,26.3-21,47.5-21c9,0,16.4,1.6,22.2,4.9c5.7,3.3,9.9,7.3,12.5,11.9c2.6,4.7,3.9,9.2,3.9,13.7
		c0,14.7-5.9,25.4-17.7,32c-11.8,6.7-26.6,10-44.3,10C1300.2,205,1293.6,204.5,1287.9,203.4z M1289.1,188.5h16.3
		c9.6,0,19.4-1.5,29.4-4.4c10-2.9,14.9-9.3,14.9-19.3c0-4.4-1.9-8.2-5.6-11.3c-3.8-3.1-8.8-4.6-15-4.6
		C1306.1,149,1292.8,162.2,1289.1,188.5z"/>
	<path class="st0" d="M1472.1,134.4c2.4,1.3,3.6,3.6,3.6,6.8c0,2.8-0.8,5.6-2.3,8.5c-1.5,2.9-3,4.4-4.4,4.4c-0.5,0-1.4-0.4-2.9-1.3
		c-1.5-0.8-3.5-1.3-6.1-1.3c-6,0-11.6,3.2-16.8,9.6c-5.2,6.4-9.3,15.3-12.4,26.6l-6.4,61.6c-0.5,3.4-3.7,5.1-9.7,5.1h-0.9
		c-5.8,0-8.7-1.6-8.7-4.8l8.7-81.3c0.9-7.4,1.4-13.8,1.4-19.3c0-2,0-3.6-0.1-4.8c-0.1-1.2-0.1-2.2-0.1-3c0-2.1,1.5-3.6,4.6-4.3
		c3.1-0.7,5.8-1,8.3-1c4.1,0,6.2,3.8,6.2,11.5c0,1.8-0.2,4.6-0.5,8.3c3.5-7.2,8-12.9,13.4-17c5.4-4.1,11.1-6.2,17.1-6.2
		C1467,132.4,1469.7,133.1,1472.1,134.4z"/>
	<path class="st0" d="M1598.2,134.5c0.8,0.8,1.3,2,1.3,3.7l-9.9,93c-1.8,18.1-5.1,32.3-9.7,42.7c-4.6,10.4-10.6,17.8-18.1,22.2
		c-7.5,4.4-16.9,6.5-28.3,6.5c-7.4,0-14.1-0.8-20.1-2.5c-6.1-1.7-10.8-3.8-14.2-6.4c-3.4-2.6-5.2-5.1-5.2-7.4
		c0-8.4,1.1-12.6,3.2-12.6c0.5,0,2.3,1.1,5.6,3.4c3.3,2.3,7.5,4.4,12.5,6.2c5.1,1.8,11.1,2.8,18.1,2.8c11.3,0,20-4.4,26-13.3
		c6-8.9,9.7-23.4,11.3-43.6c-4.6,8.6-10.1,14.9-16.4,18.8c-6.4,4-13.2,6-20.6,6c-6,0-12-1.4-18-4.4c-6.1-2.9-11.1-8-15.3-15.2
		c-4.1-7.2-6.2-16.8-6.2-28.7c0-14.2,2.4-26.9,7.1-38c4.7-11.1,11.4-19.8,20.1-26c8.7-6.2,18.7-9.3,30.2-9.3
		c11.2,0,21.3,4.1,30.3,12.4c1.4-4.1,2.7-7.1,4-8.8c1.3-1.8,3.4-2.6,6.3-2.6h1.4C1595.8,133.4,1597.3,133.8,1598.2,134.5z
		 M1578.5,158.2c-8-6-16.3-9-25-9c-14.4,0-24.5,5.2-30.4,15.5c-5.9,10.3-8.8,23.5-8.8,39.6c0,11.6,2.2,20,6.5,25.2
		c4.4,5.1,10.1,7.7,17.3,7.7c6.3,0,12.7-3.1,19.2-9.2c6.5-6.1,12-16.2,16.4-30.1l3-28.3C1577,166.9,1577.6,163.1,1578.5,158.2z"/>
	<path class="st0" d="M1634.1,233.5c0-3.1,0.6-10.5,1.8-22.3c0.6-7.8,1.8-20.4,3.7-37.8c1.8-17.4,3.1-29.1,3.9-35
		c0.2-1.8,1-3.1,2.6-3.9c1.6-0.8,3.9-1.2,7-1.2h0.9c3.2,0,5.5,0.4,6.8,1.3c1.3,0.8,1.9,2.1,1.9,3.8c-0.9,8.9-2.7,25.5-5.3,50
		c-2.6,24.4-3.9,38.1-3.9,41c0,4.1,0.7,6.7,2.1,7.8c1.4,1.1,3.4,1.6,6,1.6c1.1,0,2.2-0.2,3.4-0.6c1.2-0.4,2.1-0.6,2.8-0.6
		c0.9,0,1.4,0.5,1.4,1.6c0,2.3-0.3,5.1-0.9,8.5c-0.5,2.6-2.2,4.5-5.2,5.7c-3,1.2-5.9,1.8-8.6,1.8
		C1640.9,255.3,1634.1,248.1,1634.1,233.5z M1647.3,111.1c-1.5-0.9-2.2-2.3-2.2-4.1l1.4-12.9c0.5-3.7,4.4-5.5,11.7-5.5
		c3.7,0,6.2,0.5,7.7,1.4c1.5,0.9,2.2,2.3,2.2,4.1l-1.4,12.9c-0.3,1.7-1.4,3-3.3,4c-1.9,1-4.7,1.5-8.4,1.5
		C1651.3,112.5,1648.8,112,1647.3,111.1z"/>
	<path class="st0" d="M1808.9,239.3c0,2.3-0.3,5.1-0.9,8.5c-0.5,2.6-2.2,4.5-5.2,5.7c-3,1.2-5.9,1.8-8.6,1.8
		c-13.8,0-20.7-7.5-20.7-22.5v-2.3c-4.4,8.6-9.8,14.9-16,18.8s-12.8,6-19.9,6c-5.8,0-11.6-1.5-17.5-4.5c-5.8-3-10.8-8.2-14.8-15.5
		c-4.1-7.4-6.1-17.2-6.1-29.6c0-14.2,2.3-26.9,7-38c4.7-11.1,11.3-19.8,19.8-26c8.5-6.2,18.3-9.3,29.5-9.3
		c10.7,0,20.4,4.1,29.2,12.4c1.4-4.1,2.7-7.1,4-8.8c1.3-1.8,3.4-2.6,6.3-2.6h1.4c2.1,0,3.6,0.4,4.5,1.2c0.8,0.8,1.3,2,1.3,3.7
		c-0.9,8.9-2.7,25.7-5.3,50.3c-2.6,24.7-3.9,38.3-3.9,40.9c0,4.1,0.7,6.7,2.2,7.8c1.4,1.1,3.5,1.6,6.1,1.6c1.1,0,2.2-0.2,3.4-0.6
		c1.2-0.4,2.1-0.6,2.8-0.6C1808.5,237.7,1808.9,238.2,1808.9,239.3z M1781.4,158.2c-7.5-6-15.5-9-23.9-9c-13.9,0-23.8,5.2-29.5,15.5
		c-5.7,10.3-8.6,23.5-8.6,39.6c0,12.3,2.1,21,6.2,26.3c4.1,5.3,9.6,7.9,16.5,7.9c6.1,0,12.3-3,18.6-9.1c6.3-6,11.6-16,15.9-29.7
		l3-30.1C1779.8,166.9,1780.4,163.1,1781.4,158.2z"/>
</g>
<g>
	<path class="st1" d="M939.1,326.6c0-99.7,0-199.4,0-299.1c0-4.7-7.4-4.7-7.4,0c0,99.7,0,199.4,0,299.1
		C931.7,331.3,939.1,331.3,939.1,326.6L939.1,326.6z"/>
</g>
</svg>
