<?xml version="1.0" encoding="utf-8"?>
<!-- Generator: Adobe Illustrator 25.2.0, SVG Export Plug-In . SVG Version: 6.00 Build 0)  -->
<svg version="1.1" xmlns="http://www.w3.org/2000/svg" xmlns:xlink="http://www.w3.org/1999/xlink" x="0px" y="0px"
	 viewBox="0 0 24 24" style="enable-background:new 0 0 24 24;" xml:space="preserve">
<style type="text/css">
	.st0{fill:#113759;}
</style>
<g id="_x39_">
</g>
<g id="_x31_2">
</g>
<g id="_x31_4">
</g>
<g id="_x31_8">
</g>
<g id="_x32_4">
	<g>
		<path class="st0" d="M15.67,14.21h-3.55c-0.35,0-0.35,0.53,0,0.53h3.55C16.02,14.73,16.02,14.21,15.67,14.21L15.67,14.21z
			 M15.67,14.21"/>
		<path class="st0" d="M15.67,15.13h-3.55c-0.35,0-0.35,0.53,0,0.53h3.55C16.02,15.65,16.02,15.13,15.67,15.13L15.67,15.13z
			 M15.67,15.13"/>
		<path class="st0" d="M22.57,15.75v-3c0-1.31-1-2.41-2.3-2.54l-1.92-0.19V7.16c0-0.24-0.19-0.43-0.43-0.43h-0.3V5.43
			c0-0.35-0.53-0.35-0.53,0v1.29h-0.3c-0.24,0-0.43,0.19-0.43,0.43v2.65l-1.67-0.17l-1.34-4.17h1.14c0.15,0,0.26-0.12,0.26-0.26
			c0-1.05-0.85-1.9-1.91-1.91h-10c-0.29,0-0.57,0.11-0.77,0.32c-0.2,0.2-0.32,0.48-0.32,0.77c0,0.29,0.12,0.57,0.32,0.77
			c0.2,0.2,0.48,0.32,0.77,0.32h0.29v1.41c0,0.14,0.1,0.26,0.24,0.27c0.16,0.01,0.29-0.11,0.29-0.26V5.47h3.2v5.62
			c-0.52-0.16-1.06-0.24-1.6-0.24c-0.54,0-1.08,0.08-1.6,0.24V8.69c0-0.14-0.1-0.26-0.24-0.27C3.27,8.4,3.14,8.52,3.14,8.67v2.6
			c-0.66,0.28-1.25,0.68-1.76,1.18c-0.2,0.2-0.3,0.47-0.29,0.75c0.01,0.28,0.15,0.54,0.36,0.71c0.11,0.08,0.23,0.15,0.36,0.18
			C1.28,14.8,1,15.66,1,16.55c0,2.29,1.87,4.15,4.16,4.15c1.48,0,2.85-0.79,3.6-2.07h5.08c0.15,0,0.26-0.12,0.26-0.26
			c0-0.15-0.12-0.26-0.26-0.26h-3.36c0.11-0.32,0.19-0.66,0.24-1h5.73c-0.01,0.08-0.01,0.17-0.01,0.26c0,0.25,0.03,0.5,0.09,0.74
			h-0.85c-0.15,0-0.26,0.12-0.26,0.26c0,0.15,0.12,0.26,0.26,0.26h1.02c0.61,1.44,2.14,2.25,3.67,1.94S23,18.92,23,17.36
			C23,16.8,22.85,16.24,22.57,15.75z M18.82,10.59l1.39,0.14c1.04,0.1,1.83,0.97,1.83,2.01h-2.18c-0.58,0-1.05-0.47-1.05-1.05V10.59
			z M16.88,7.25h0.94v0.33h-0.94V7.25z M16.88,8.11h0.94v1.85l-0.94-0.1V8.11z M14.11,9.58l-0.98-0.1c-0.2-0.02-0.41,0.03-0.58,0.14
			L11.7,9.09l0.31-0.51c0.18-0.3-0.27-0.57-0.45-0.27l-0.9,1.49c-0.08,0.12-0.03,0.29,0.09,0.36c0.12,0.07,0.29,0.03,0.36-0.09
			l0.32-0.53l0.8,0.5c-0.04,0.09-0.05,0.19-0.05,0.3v2.05H9.23L9.16,9.22c-0.02-1-0.77-1.84-1.77-1.97V5.47h5.4L14.11,9.58z
			 M14.22,10.12v1.63c0,0.36-0.29,0.64-0.65,0.64H12.7v-2.05c0-0.1,0.04-0.19,0.11-0.25c0.07-0.06,0.17-0.1,0.26-0.08L14.22,10.12z
			 M8.69,12.06c-0.4-0.32-0.84-0.58-1.3-0.78V7.78C8.1,7.91,8.62,8.52,8.64,9.23L8.69,12.06z M2.85,4.94c-0.15,0-0.29-0.06-0.4-0.16
			c-0.11-0.1-0.17-0.25-0.17-0.4c0-0.15,0.06-0.29,0.17-0.4c0.11-0.1,0.25-0.16,0.4-0.16h10c0.66,0,1.23,0.47,1.35,1.12H2.85z
			 M5.16,20.2c-2,0-3.62-1.62-3.62-3.62s1.62-3.62,3.62-3.62s3.62,1.62,3.62,3.62S7.16,20.2,5.16,20.2z M9.92,18.11h-0.9
			c0.2-0.49,0.3-1.02,0.3-1.56c0-2.29-1.87-4.15-4.16-4.15c-1.04,0-2.05,0.39-2.82,1.1l0,0c-0.16,0.13-0.39,0.13-0.56,0.01
			c-0.1-0.08-0.16-0.2-0.17-0.33c-0.01-0.13,0.04-0.26,0.14-0.35c0.94-0.94,2.21-1.46,3.54-1.45c1.32,0.01,2.59,0.55,3.52,1.49
			c0.94,0.94,1.46,2.22,1.44,3.55C10.24,16.99,10.13,17.56,9.92,18.11z M16.53,16.58L16.53,16.58h-5.76c0-0.05,0-0.11,0-0.16
			c0.02-1.27-0.41-2.51-1.21-3.5h4.02c0.65,0,1.17-0.52,1.17-1.17v-1.57l3.55,0.36v1.16c0,0.87,0.71,1.57,1.57,1.57h2.18v1.79
			c-0.84-0.84-2.06-1.17-3.2-0.85C17.7,14.52,16.81,15.43,16.53,16.58z M19.75,20.19c-1.56,0-2.82-1.26-2.82-2.82
			c0-1.56,1.26-2.82,2.82-2.82c1.56,0,2.82,1.26,2.82,2.82C22.57,18.92,21.3,20.19,19.75,20.19z"/>
		<path class="st0" d="M5.15,14.99c-0.64,0-1.22,0.39-1.47,0.98c-0.25,0.59-0.11,1.28,0.35,1.73c0.46,0.45,1.14,0.59,1.73,0.34
			c0.59-0.25,0.98-0.83,0.98-1.47C6.74,15.7,6.03,14.99,5.15,14.99z M5.6,17.68c-0.44,0.18-0.95,0.08-1.3-0.26
			c-0.34-0.34-0.44-0.85-0.26-1.29c0.18-0.44,0.62-0.73,1.1-0.74c0.66,0,1.19,0.53,1.19,1.19C6.34,17.06,6.05,17.49,5.6,17.68z"/>
		<path class="st0" d="M19.75,16.21c-0.47,0-0.89,0.28-1.07,0.72c-0.18,0.43-0.08,0.93,0.25,1.27c0.33,0.33,0.83,0.43,1.27,0.25
			c0.43-0.18,0.72-0.6,0.72-1.07C20.91,16.73,20.39,16.21,19.75,16.21z M20.1,18.22c-0.34,0.14-0.74,0.06-1-0.2
			c-0.26-0.26-0.34-0.66-0.2-1c0.14-0.34,0.47-0.57,0.84-0.57c0.51,0,0.92,0.41,0.92,0.92C20.67,17.74,20.44,18.07,20.1,18.22z"/>
	</g>
</g>
<g id="_x33_6">
</g>
<g id="_x39_2">
</g>
</svg>
