<svg xmlns="http://www.w3.org/2000/svg" viewBox="0 0 10.46 14.75" fill="#47b8b2">
  <defs/>
  <g id="Camada_2" data-name="Camada 2">
    <g id="Camada_1-2" data-name="Camada 1">
      <g id="_18" data-name="18">
        <g id="Icon-Location">
          <g id="Fill-56">
            <path class="cls-1" d="M5.24 3.32a2 2 0 0 0-.47.06 2 2 0 0 0-1.35 1.39 1.91 1.91 0 0 0 1.38 2.3 2.12 2.12 0 0 0 .44 0 1.9 1.9 0 0 0 0-3.79ZM5 6.52A1.31 1.31 0 0 1 4 5a1.37 1.37 0 0 1 .26-.56 1.33 1.33 0 0 1 1.84-.21 1.29 1.29 0 0 1 .48 1 1.26 1.26 0 0 1-.49 1 1.25 1.25 0 0 1-.85.32Z"/>
            <path class="cls-1" d="M5.25 7.3a2.06 2.06 0 0 1-2-2.57 2.11 2.11 0 0 1 1.48-1.51 1.79 1.79 0 0 1 .51-.07 2.08 2.08 0 0 1 0 4.15Zm0-4v.2a2 2 0 0 0-.42 0 1.79 1.79 0 0 0-1.24 1.32A1.72 1.72 0 0 0 4.84 6.9a1.84 1.84 0 0 0 .41 0A1.74 1.74 0 0 0 7 5.24 1.68 1.68 0 0 0 6.47 4a1.72 1.72 0 0 0-1.21-.5Zm0 3.42L5 6.7a1.5 1.5 0 0 1-1.19-1.77 1.53 1.53 0 0 1 .3-.63 1.46 1.46 0 0 1 1-.53 1.43 1.43 0 0 1 1.09.33 1.45 1.45 0 0 1 0 2.28 1.44 1.44 0 0 1-.95.36ZM5 6.35h.26A1.1 1.1 0 0 0 6 6.11a1.13 1.13 0 0 0-.83-2 1.13 1.13 0 0 0-.77.42 1.19 1.19 0 0 0-.25.47A1.13 1.13 0 0 0 5 6.35Z"/>
          </g>
          <path class="cls-1" d="M5.24.17A5.1 5.1 0 0 0 .17 5.24c0 1.92 1.73 5.14 4.75 8.84l.11.14.21.25.21-.25a34.46 34.46 0 0 0 3-4.1.28.28 0 0 0 0-.22.27.27 0 0 0-.13-.17.31.31 0 0 0-.39.09A36.7 36.7 0 0 1 5.3 13.5l-.06.08-.07-.08C3.84 11.84.73 7.71.73 5.21a4.51 4.51 0 0 1 9 0 7.15 7.15 0 0 1-1 3.1.29.29 0 0 0 .11.37.22.22 0 0 0 .22 0 .22.22 0 0 0 .17-.14 7.73 7.73 0 0 0 1-3.32A5.09 5.09 0 0 0 5.24.17Z"/>
          <path class="cls-1" d="m5.24 14.75-.45-.56C1.75 10.47 0 7.2 0 5.24A5.27 5.27 0 0 1 5.24 0a5.28 5.28 0 0 1 5.21 5.22 8.1 8.1 0 0 1-1 3.41.42.42 0 0 1-.28.22.39.39 0 0 1-.35 0 .46.46 0 0 1-.18-.6 7.28 7.28 0 0 0 .93-3 4.34 4.34 0 0 0-8.65 0c0 2.37 3 6.37 4.33 8.08a42.31 42.31 0 0 0 2.54-3.6.47.47 0 0 1 .62-.15.46.46 0 0 1 .21.27.5.5 0 0 1 0 .34 38 38 0 0 1-3 4.15Zm0-14.4a4.91 4.91 0 0 0-4.89 4.9c0 1.87 1.72 5.06 4.71 8.72l.18.23.08-.09a38.45 38.45 0 0 0 3-4.08.12.12 0 0 0 0-.06.15.15 0 0 0-.06-.09.11.11 0 0 0-.15 0 39.92 39.92 0 0 1-2.64 3.69l-.19.25-.28-.2C3.37 11.53.56 7.66.56 5.21A4.63 4.63 0 0 1 2.15 2a4.68 4.68 0 0 1 7.76 3.2 7.52 7.52 0 0 1-1 3.2.1.1 0 0 0 0 .13H9c.07 0 .09 0 .1-.06a7.82 7.82 0 0 0 1-3.26A4.93 4.93 0 0 0 5.24.35Z"/>
        </g>
      </g>
    </g>
  </g>
</svg>
