<?xml version="1.0" encoding="utf-8"?>
<!-- Generator: Adobe Illustrator 25.2.0, SVG Export Plug-In . SVG Version: 6.00 Build 0)  -->
<svg version="1.1" xmlns="http://www.w3.org/2000/svg" xmlns:xlink="http://www.w3.org/1999/xlink" x="0px" y="0px"
	 viewBox="0 0 9 9" style="enable-background:new 0 0 9 9;" xml:space="preserve">
<style type="text/css">
	.st0{fill:#113759;}
	.st1{fill:#FFFFFF;}
</style>
<g id="_x39_">
	<g>
		<path class="st0" d="M6.64,6.45c0.06,0,0.12-0.05,0.12-0.12V5.76c0-0.06-0.05-0.12-0.12-0.12H2.62C2.56,5.65,2.5,5.7,2.5,5.76
			v0.57c0,0.06,0.05,0.12,0.12,0.12H6.64z M5.18,6.21H4.75V5.88h0.43V6.21z M5.41,5.88h0.43v0.33H5.41V5.88z M4.51,6.21H4.08V5.88
			h0.43V6.21z M3.85,6.21H3.42V5.88h0.43V6.21z M6.52,6.21H6.08V5.88h0.44V6.21z M2.74,5.88h0.44v0.33H2.74V5.88z M2.74,5.88"/>
		<path class="st0" d="M8.38,7.74H8.05V3.29h0.05c0.06,0,0.12-0.05,0.12-0.12c0-0.06-0.05-0.12-0.12-0.12H8.05V2.64h0.05
			c0.06,0,0.12-0.05,0.12-0.12c0-0.06-0.05-0.12-0.12-0.12c-0.19,0-1.27,0-1.49,0c-0.06,0-0.12,0.05-0.12,0.12
			c0,0.06,0.05,0.12,0.12,0.12h0.05v0.41H6.61c-0.06,0-0.12,0.05-0.12,0.12c0,0.06,0.05,0.12,0.12,0.12h0.05V3.8L5.85,2.99
			C5.78,2.92,5.68,2.88,5.57,2.88H5.06V1.94h0.07c0.06,0,0.12-0.05,0.12-0.12c0-0.06-0.05-0.12-0.12-0.12H5.06V1.26h0.07
			c0.06,0,0.12-0.05,0.12-0.12c0-0.06-0.05-0.12-0.12-0.12c-0.3,0-1.88,0-2.21,0c-0.06,0-0.12,0.05-0.12,0.12
			c0,0.06,0.05,0.12,0.12,0.12h0.07v0.45H2.91c-0.06,0-0.12,0.05-0.12,0.12c0,0.06,0.05,0.12,0.12,0.12h0.07v0.53
			c0,0.06,0.05,0.12,0.12,0.12c0.06,0,0.12-0.05,0.12-0.12V1.94h1.61v3.17H3.21V2.94c0-0.06-0.05-0.12-0.12-0.12
			c-0.06,0-0.12,0.05-0.12,0.12v2.18H2.53V4.59h0.06c0.06,0,0.12-0.05,0.12-0.12c0-0.06-0.05-0.12-0.12-0.12H2.53V4.31
			c0-0.06-0.05-0.12-0.12-0.12C2.35,4.2,2.3,4.25,2.3,4.31v0.04H2.24c-0.06,0-0.12,0.05-0.12,0.12c0,0.06,0.05,0.12,0.12,0.12H2.3
			v0.53H2.04c-0.12,0-0.21,0.09-0.21,0.21V6.1H1.6c-0.24,0-0.47,0.11-0.62,0.29C0.94,6.44,0.94,6.51,0.99,6.55
			c0.05,0.04,0.12,0.04,0.17-0.01C1.27,6.41,1.43,6.33,1.6,6.33h0.23v0.31H1.6c-0.15,0-0.26,0.12-0.26,0.26v0.84H1.02V6.91
			c0-0.06-0.05-0.12-0.12-0.12c-0.06,0-0.12,0.05-0.12,0.12v0.83H0.62C0.55,7.74,0.5,7.8,0.5,7.86c0,0.06,0.05,0.12,0.12,0.12h7.77
			c0.06,0,0.12-0.05,0.12-0.12C8.5,7.8,8.45,7.74,8.38,7.74L8.38,7.74z M3.21,1.71V1.26h1.61v0.45H3.21z M6.89,2.64h0.92v0.41H6.89
			V2.64z M5.57,3.11c0.04,0,0.08,0.02,0.11,0.05l0.97,0.97v0.44L5.54,3.46C5.52,3.44,5.49,3.43,5.46,3.43h-0.4V3.11H5.57z
			 M1.57,6.91c0-0.02,0.01-0.03,0.03-0.03h0.23v0.87H1.57V6.91z M2.07,5.35h3.55c0.06,0,0.12-0.05,0.12-0.12
			c0-0.06-0.05-0.12-0.12-0.12H5.06V3.66h0.35l1.24,1.24v0.21H6.09c-0.06,0-0.12,0.05-0.12,0.12c0,0.06,0.05,0.12,0.12,0.12H7.2
			v2.39H5.61V6.93c0-0.06-0.05-0.12-0.12-0.12H3.77c-0.06,0-0.12,0.05-0.12,0.12v0.81H2.07C2.07,7.64,2.07,5.46,2.07,5.35L2.07,5.35
			z M3.88,7.74v-0.7h1.49v0.7H3.88z M7.43,7.74V5.33c0-0.12-0.09-0.21-0.21-0.21H6.89c0-0.36,0-1.45,0-1.83h0.92v4.45H7.43z
			 M7.43,7.74"/>
	</g>
</g>
<g id="_x31_2">
</g>
<g id="_x31_4">
</g>
<g id="_x31_8">
</g>
<g id="_x32_4">
</g>
<g id="_x33_6">
</g>
<g id="_x39_2">
</g>
</svg>
